<?xml version="1.0" encoding="UTF-8" standalone="no"?>
<svg
   xmlns:dc="http://purl.org/dc/elements/1.1/"
   xmlns:cc="http://creativecommons.org/ns#"
   xmlns:rdf="http://www.w3.org/1999/02/22-rdf-syntax-ns#"
   xmlns:svg="http://www.w3.org/2000/svg"
   xmlns="http://www.w3.org/2000/svg"
   xmlns:sodipodi="http://sodipodi.sourceforge.net/DTD/sodipodi-0.dtd"
   xmlns:inkscape="http://www.inkscape.org/namespaces/inkscape"
   width="64"
   height="64"
   version="1.1"
   id="svg12"
   sodipodi:docname="ms-office.svg"
   inkscape:export-filename="/home/milesa/Projects/office20/source/Resource/AppIcons/papirus/ms-office.svg.png"
   inkscape:export-xdpi="384"
   inkscape:export-ydpi="384"
   inkscape:version="0.92.3 (2405546, 2018-03-11)">
  <metadata
     id="metadata18">
    <rdf:RDF>
      <cc:Work
         rdf:about="">
        <dc:format>image/svg+xml</dc:format>
        <dc:type
           rdf:resource="http://purl.org/dc/dcmitype/StillImage" />
      </cc:Work>
    </rdf:RDF>
  </metadata>
  <defs
     id="defs16" />
  <sodipodi:namedview
     pagecolor="#ffffff"
     bordercolor="#666666"
     borderopacity="1"
     objecttolerance="10"
     gridtolerance="10"
     guidetolerance="10"
     inkscape:pageopacity="0"
     inkscape:pageshadow="2"
     inkscape:window-width="698"
     inkscape:window-height="480"
     id="namedview14"
     showgrid="false"
     inkscape:zoom="3.6875"
     inkscape:cx="32"
     inkscape:cy="30.718303"
     inkscape:window-x="0"
     inkscape:window-y="0"
     inkscape:window-maximized="0"
     inkscape:current-layer="svg12" />
  <rect
     style="opacity:0.2"
     width="56"
     height="56"
     x="4"
     y="5"
     rx="2.8"
     ry="2.8"
     id="rect2" />
  <rect
     style="fill:#e83f24;fill-opacity:1"
     width="56"
     height="56"
     x="4"
     y="4"
     rx="2.8"
     ry="2.8"
     id="rect4" />
  <path
     style="opacity:0.2"
     d="m 26.222949,49.249293 c -5.859581,-2.061085 -10.672754,-3.765943 -10.69592,-3.788599 -0.02323,-0.02272 -0.02879,-0.05428 -0.01318,-0.07014 0.01637,-0.016 4.843121,0.537314 10.726293,1.229429 8.110796,0.954186 9.722951,1.240014 9.760458,1.182329 0.06548,-0.100709 0.06432,-28.050056 -0.0012,-28.150785 -0.07119,-0.109571 -13.800432,3.099672 -13.918575,3.252358 -0.06388,0.08243 -0.08083,2.100614 -0.08083,9.595956 0,7.518557 -0.01682,9.504171 -0.08082,9.552456 -0.122485,0.09243 -6.757033,3.178944 -6.850038,3.178244 -0.0646,-5.15e-4 -0.0776,-2.449686 -0.0646,-12.142443 l 0.01636,-12.141828 8.373538,-3.025057 c 4.605446,-1.663771 9.556538,-3.451685 11.00244,-3.973128 L 37.025774,13 l 5.906295,1.848757 c 3.248455,1.016828 5.942647,1.871428 5.987109,1.899128 0.06432,0.04014 0.08082,3.385485 0.08082,16.381113 0,15.48957 -0.0058,16.333799 -0.113136,16.389956 -0.197832,0.103429 -11.729951,3.484486 -11.873336,3.481043 -0.07557,-0.0014 -4.931535,-1.689628 -10.79113,-3.7507 z"
     id="path6" />
  <path
     style="fill:#ffffff"
     d="m 26.222949,48.249293 c -5.859581,-2.061085 -10.672754,-3.765943 -10.69592,-3.788599 -0.02323,-0.02272 -0.02879,-0.05428 -0.01318,-0.07014 0.01637,-0.016 4.843121,0.537314 10.726293,1.229429 8.110796,0.954186 9.722951,1.240014 9.760458,1.182329 0.06548,-0.100709 0.06432,-28.050056 -0.0012,-28.150785 -0.07119,-0.109571 -13.800432,3.099672 -13.918575,3.252358 -0.06388,0.08243 -0.08083,2.100614 -0.08083,9.595956 0,7.518557 -0.01682,9.504171 -0.08082,9.552456 -0.122485,0.09243 -6.757033,3.178944 -6.850038,3.178244 -0.0646,-5.15e-4 -0.0776,-2.449686 -0.0646,-12.142443 l 0.01636,-12.141828 8.373538,-3.025057 c 4.605446,-1.663771 9.556538,-3.451685 11.00244,-3.973128 L 37.025774,12 l 5.906295,1.848757 c 3.248455,1.016828 5.942647,1.871428 5.987109,1.899128 0.06432,0.04014 0.08082,3.385485 0.08082,16.381113 0,15.48957 -0.0058,16.333799 -0.113136,16.389956 -0.197832,0.103429 -11.729951,3.484486 -11.873336,3.481043 -0.07557,-0.0014 -4.931535,-1.689628 -10.79113,-3.7507 z"
     id="path8" />
  <path
     style="fill:#ffffff;opacity:0.1"
     d="M 6.8007812 4 C 5.2495813 4 4 5.2495813 4 6.8007812 L 4 7.8007812 C 4 6.2495813 5.2495813 5 6.8007812 5 L 57.199219 5 C 58.750419 5 60 6.2495813 60 7.8007812 L 60 6.8007812 C 60 5.2495813 58.750419 4 57.199219 4 L 6.8007812 4 z"
     id="path10" />
</svg>
